// Jest Snapshot v1, https://goo.gl/fbAQLP

exports[`<App /> should render App Component 1`] = `
Array [
  <Route>
    [Function]
  </Route>,
]
`;

exports[`App should render App Component 1`] = `
Array [
  <Route>
    [Function]
  </Route>,
]
`;

exports[`should render App Component 1`] = `
Array [
  <Route>
    [Function]
  </Route>,
]
`;
